%YAML 1.1
%TAG !u! tag:unity3d.com,2011:
--- !u!114 &11400000
MonoBehaviour:
  m_ObjectHideFlags: 0
  m_PrefabParentObject: {fileID: 0}
  m_PrefabInternal: {fileID: 0}
  m_GameObject: {fileID: 0}
  m_Enabled: 1
  m_EditorHideFlags: 0
  m_Script: {fileID: 11500000, guid: c5635dae6ce4f5440851c7e18f15460b, type: 3}
  m_Name: MastodonteInfo
  m_EditorClassIdentifier: 
  sprite: {fileID: 21300000, guid: 53f60a824da7bdf49b47bfae6bd49085, type: 3}
  color: {r: 0.3897059, g: 0.1822843, b: 0.022923876, a: 0}
