%YAML 1.1
%TAG !u! tag:unity3d.com,2011:
--- !u!114 &11400000
MonoBehaviour:
  m_ObjectHideFlags: 0
  m_PrefabParentObject: {fileID: 0}
  m_PrefabInternal: {fileID: 0}
  m_GameObject: {fileID: 0}
  m_Enabled: 1
  m_EditorHideFlags: 0
  m_Script: {fileID: 11500000, guid: c5635dae6ce4f5440851c7e18f15460b, type: 3}
  m_Name: ScoutInfo
  m_EditorClassIdentifier: 
  sprite: {fileID: 21300000, guid: 1808f0a6437bd8d40b1088265d254b63, type: 3}
  color: {r: 0.0588776, g: 0.8897059, b: 0.7178104, a: 0}
