%YAML 1.1
%TAG !u! tag:unity3d.com,2011:
--- !u!114 &11400000
MonoBehaviour:
  m_ObjectHideFlags: 0
  m_PrefabParentObject: {fileID: 0}
  m_PrefabInternal: {fileID: 0}
  m_GameObject: {fileID: 0}
  m_Enabled: 1
  m_EditorHideFlags: 0
  m_Script: {fileID: 11500000, guid: f41fd986640db3848a811519f7e8a633, type: 3}
  m_Name: MedicSubMachineGun
  m_EditorClassIdentifier: 
  RateOfFire: 13
  ReloadTime: 2
  FiringRange: 30
  MaxDamage: 23
