%YAML 1.1
%TAG !u! tag:unity3d.com,2011:
--- !u!1001 &100100000
Prefab:
  m_ObjectHideFlags: 1
  serializedVersion: 2
  m_Modification:
    m_TransformParent: {fileID: 0}
    m_Modifications: []
    m_RemovedComponents: []
  m_ParentPrefab: {fileID: 0}
  m_RootGameObject: {fileID: 1787767726091316}
  m_IsPrefabParent: 1
--- !u!1 &1787767726091316
GameObject:
  m_ObjectHideFlags: 0
  m_PrefabParentObject: {fileID: 0}
  m_PrefabInternal: {fileID: 100100000}
  serializedVersion: 5
  m_Component:
  - component: {fileID: 4849913222914572}
  - component: {fileID: 114968886303797964}
  m_Layer: 0
  m_Name: QuestItemGenerator
  m_TagString: Untagged
  m_Icon: {fileID: 0}
  m_NavMeshLayer: 0
  m_StaticEditorFlags: 0
  m_IsActive: 1
--- !u!4 &4849913222914572
Transform:
  m_ObjectHideFlags: 1
  m_PrefabParentObject: {fileID: 0}
  m_PrefabInternal: {fileID: 100100000}
  m_GameObject: {fileID: 1787767726091316}
  m_LocalRotation: {x: -0, y: -0, z: -0, w: 1}
  m_LocalPosition: {x: 0, y: 0, z: 0}
  m_LocalScale: {x: 1, y: 1, z: 1}
  m_Children: []
  m_Father: {fileID: 0}
  m_RootOrder: 0
  m_LocalEulerAnglesHint: {x: 0, y: 0, z: 0}
--- !u!114 &114968886303797964
MonoBehaviour:
  m_ObjectHideFlags: 1
  m_PrefabParentObject: {fileID: 0}
  m_PrefabInternal: {fileID: 100100000}
  m_GameObject: {fileID: 1787767726091316}
  m_Enabled: 1
  m_EditorHideFlags: 0
  m_Script: {fileID: 11500000, guid: 1010e67ca1aa3aa419e21ce9f8357f7a, type: 3}
  m_Name: 
  m_EditorClassIdentifier: 
  questItemsArray:
  - {fileID: 100000, guid: ae018aef64a8af149ac31816a82819f4, type: 2}
  - {fileID: 100000, guid: ae018aef64a8af149ac31816a82819f4, type: 2}
  - {fileID: 100000, guid: ae018aef64a8af149ac31816a82819f4, type: 2}
  missionPropsArray:
  - {fileID: 1748593670123908, guid: 7dc433eff075653418e0f65a6aabbbf1, type: 2}
  - {fileID: 1748593670123908, guid: 7dc433eff075653418e0f65a6aabbbf1, type: 2}
