%YAML 1.1
%TAG !u! tag:unity3d.com,2011:
--- !u!114 &11400000
MonoBehaviour:
  m_ObjectHideFlags: 0
  m_PrefabParentObject: {fileID: 0}
  m_PrefabInternal: {fileID: 0}
  m_GameObject: {fileID: 0}
  m_Enabled: 1
  m_EditorHideFlags: 0
  m_Script: {fileID: 11500000, guid: 31e21f2cfc8c11e488dec08ea8c31d43, type: 3}
  m_Name: RunnerZombieHealth
  m_EditorClassIdentifier: 
  MaxHealth: 40
  InitialHealth: 40
