%YAML 1.1
%TAG !u! tag:unity3d.com,2011:
--- !u!114 &11400000
MonoBehaviour:
  m_ObjectHideFlags: 0
  m_PrefabParentObject: {fileID: 0}
  m_PrefabInternal: {fileID: 0}
  m_GameObject: {fileID: 0}
  m_Enabled: 1
  m_EditorHideFlags: 0
  m_Script: {fileID: 11500000, guid: 62673031b1f54a108493dd7b08144bb7, type: 3}
  m_Name: MathieuMenu
  m_EditorClassIdentifier: 
  scene: 815027359
  controller: 815027359
  isAlwaysVisible: 0
