%YAML 1.1
%TAG !u! tag:unity3d.com,2011:
--- !u!114 &11400000
MonoBehaviour:
  m_ObjectHideFlags: 0
  m_PrefabParentObject: {fileID: 0}
  m_PrefabInternal: {fileID: 0}
  m_GameObject: {fileID: 0}
  m_Enabled: 1
  m_EditorHideFlags: 0
  m_Script: {fileID: 11500000, guid: 5b13fa324e5908748b91ca68e116b4e8, type: 3}
  m_Name: ScoutAmmo
  m_EditorClassIdentifier: 
  MaxAmmoOnPlayer: 120
  MagasineSize: 15
  IsUnlimited: 0
