%YAML 1.1
%TAG !u! tag:unity3d.com,2011:
--- !u!114 &11400000
MonoBehaviour:
  m_ObjectHideFlags: 0
  m_PrefabParentObject: {fileID: 0}
  m_PrefabInternal: {fileID: 0}
  m_GameObject: {fileID: 0}
  m_Enabled: 1
  m_EditorHideFlags: 0
  m_Script: {fileID: 11500000, guid: 86a7306711ea04c4280026c015b10301, type: 3}
  m_Name: Runner
  m_EditorClassIdentifier: 
  speed: 17
  minDamage: 20
  maxDamage: 30
  range: 1
  attackSpeed: 1
  zombieType: 1
